{
  metadata: {
    namespace: "http_names",
    export: "PLATFORM_EXPORT",
  },

  data: [
    "GET",
    "HEAD",
    "POST",
    "OPTIONS",
    "PUT",
    "CONNECT",
    "Accept",
    "Accept-CH",
    "Accept-Language",
    "Access-Control-Allow-External",
    "Access-Control-Allow-Headers",
    "Access-Control-Allow-Methods",
    "Access-Control-Allow-Origin",
    "Access-Control-Allow-Credentials",
    "Access-Control-Expose-Headers",
    "Access-Control-Max-Age",
    "Access-Control-Request-External",
    "Access-Control-Request-Headers",
    "Access-Control-Request-Method",
    "Allow-CSP-From",
    "Attribution-Reporting-Eligible",
    "Attribution-Reporting-Register-OS-Source",
    "Attribution-Reporting-Register-OS-Trigger",
    "Attribution-Reporting-Register-Source",
    "Attribution-Reporting-Register-Trigger",
    "Attribution-Reporting-Support",
    "Cache-Control",
    "Content-DPR",
    "Content-Disposition",
    "Content-Language",
    "Content-Security-Policy",
    "Content-Security-Policy-Report-Only",
    "Content-Type",
    "Delegate-CH",
    "Document-Policy",
    "Document-Policy-Report-Only",
    "ETag",
    "Expect-CT",
    "Expires",
    "Date",
    "Feature-Policy",
    "Feature-Policy-Report-Only",
    "If-Match",
    "If-Modified-Since",
    "If-None-Match",
    "If-Range",
    "If-Unmodified-Since",
    "Last-Event-ID",
    "Last-Modified",
    "Link",
    "Location",
    "Origin",
    "Origin-Trial",
    "Origin-Agent-Cluster",
    "No-Vary-Search",
    "Permissions-Policy",
    "Permissions-Policy-Report-Only",
    "Ping-From",
    "Ping-To",
    "Pragma",
    "Range",
    "Referer",
    "Referrer-Policy",
    "Refresh",
    "Resource-Freshness",
    "Require-Document-Policy",
    "Save-Data",
    "Server-Timing",
    "Speculation-Rules",
    "SourceMap",
    "Timing-Allow-Origin",
    "Upgrade-Insecure-Requests",
    "User-Agent",
    "Vary",
    "X-Content-Type-Options",
    "X-DNS-Prefetch-Control",
    "X-Frame-Options",
    "X-SourceMap",
    "X-XSS-Protection",
  ],
}
